{
    "engine": {
        "engine_type": "simple",
        "opt_config": {
            "out_sample_percent": 0.2
        }
    },
    "matcher": {
        "matcher_type": "close",
        "matcher_config": {}
    },
    "analyzer": {
        "analyzer_type": "comprehensive",
        "analyzer_config": {}
    }
}
