{
    "engine": {
        "engine_type": "rolling",
        "opt_config": {
            "inner_engine_type": "simple",
            "rolling_delta": "1d",
            "sample_delta": "10d",
            "inner_engine_config": {
                "out_sample_percent": 0.3
            }
        }
    },
    "matcher": {
        "matcher_type": "close",
        "matcher_config": {}
    },
    "analyzer": {
        "analyzer_type": "comprehensive",
        "analyzer_config": {}
    }
}
